File:
92010000 08000000 01000000 05000000
73746172 74000000 00000000 0000C055
40010000 00020000 00757000 00000000
00000000 C0554001 00000004 0000006C
65667400 00000000 00000000 C0554001
00000004 00000064 6F776E00 00000000
00000000 C0554001 00000006 00000061
74746163 6B000000 00000000 0000C055
40010000 00040000 00626163 6B000000
00000000 0000C055 40010000 00040000
006A756D 70000000 00000000 0000C055
40010000 00050000 00726967 68740000
00000000 000000C0 5540

92010000 08000000 01000000 05000000
73746172 74000000 00000000 004001E0
40010000 00020000 00757000 00000000
00000000 005A4001 00000004 0000006C
65667400 00000000 00000000 80594001
00000004 00000064 6F776E00 00000000
00000000 40594001 00000006 00000061
74746163 6B000000 00000000 002000E0
40010000 00040000 00626163 6B000000
00000000 002001E0 40010000 00040000
006A756D 70000000 00000000 008000E0
40010000 00050000 00726967 68740000
00000000 000000C0 5940

0 


Controls:
W     - L_JOY_L
W     - L_JOY_R
W     - L_JOY_U
W     - L_JOY_D
W     - FACE_1
W     - FACE_4
W     - START
W     - SELECT
